module gitlab.com/tromos/tromos-ce

require (
	bazil.org/fuse v0.0.0-20180421153158-65cc252bf669
	code.cloudfoundry.org/bytefmt v0.0.0-20180906201452-2aa6f33b730c
	github.com/DataDog/zstd v1.4.0
	github.com/Nvveen/Gotty v0.0.0-20120604004816-cd527374f1e5 // indirect
	github.com/Unknwon/com v0.0.0-20190321035513-0fed4efef755 // indirect
	github.com/Unknwon/goconfig v0.0.0-20190425194916-3dba17dd7b9e
	github.com/aybabtme/iocontrol v0.0.0-20150809002002-ad15bcfc95a0
	github.com/benbjohnson/clock v0.0.0-20161215174838-7dc76406b6d3 // indirect
	github.com/boltdb/bolt v1.3.1
	github.com/cheggaaa/pb v2.0.6+incompatible
	github.com/davecgh/go-spew v1.1.1
	github.com/djherbis/stream v1.2.0
	github.com/docker/docker v1.13.1 // indirect
	github.com/docker/docker-ce v17.12.1-ce-rc2+incompatible
	github.com/docker/go-units v0.4.0 // indirect
	github.com/go-playground/locales v0.12.1 // indirect
	github.com/go-playground/universal-translator v0.16.0 // indirect
	github.com/go-xweb/uuid v0.0.0-20140604020037-d7dce341f851 // indirect
	github.com/goftp/file-driver v0.0.0-20180502053751-5d604a0fc0c9
	github.com/goftp/ftpd v0.0.0-20180821024231-89d1eae9c018
	github.com/goftp/server v0.0.0-20190304020633-eabccc535b5a
	github.com/golang/groupcache v0.0.0-20190129154638-5b532d6fd5ef
	github.com/google/uuid v1.1.1
	github.com/hashicorp/go-getter v1.3.0
	github.com/hashicorp/go-immutable-radix v1.1.0
	github.com/hashicorp/yamux v0.0.0-20181012175058-2f1d1f20f75d
	github.com/hprose/hprose-golang v2.0.4+incompatible
	github.com/jolestar/go-commons-pool v2.0.0+incompatible
	github.com/juju/ratelimit v1.0.1
	github.com/klauspost/cpuid v1.2.1 // indirect
	github.com/klauspost/dedup v1.1.0
	github.com/klauspost/reedsolomon v1.9.2
	github.com/leodido/go-urn v1.1.0 // indirect
	github.com/lunny/tango v0.5.6
	github.com/miolini/datacounter v0.0.0-20171104152933-fd4e42a1d5e0
	github.com/orcaman/concurrent-map v0.0.0-20190314100340-2693aad1ed75
	github.com/oxtoacart/bpool v0.0.0-20190530202638-03653db5a59c // indirect
	github.com/prasmussen/gdrive v0.0.0-20190419185059-29ca5a922a95
	github.com/sabhiram/go-git-ignore v0.0.0-20180611051255-d3107576ba94 // indirect
	github.com/sirupsen/logrus v1.4.2
	github.com/soniakeys/graph v0.0.0 // indirect
	github.com/spacemonkeygo/errors v0.0.0-20171212215202-9064522e9fd1
	github.com/spf13/afero v1.1.2
	github.com/spf13/cobra v0.0.5
	github.com/spf13/viper v1.4.0
	github.com/syndtr/goleveldb v1.0.0
	github.com/tango-contrib/binding v0.0.0-20170526073042-f86db18c4a9e
	github.com/tango-contrib/flash v0.0.0-20170619055053-40456640d164
	github.com/tango-contrib/renders v0.0.0-20170526074344-86dba79a0240
	github.com/tango-contrib/session v0.0.0-20170526074221-3115f8ddf72d
	github.com/tango-contrib/xsrf v0.0.0-20170526074244-3dbe17fdad36
	github.com/trustmaster/goflow v0.0.0-20190121210651-98ea6cda15a3
	github.com/workiva/go-datastructures v1.0.50
	golang.org/x/net v0.0.0-20190522155817-f3200d17e092
	golang.org/x/oauth2 v0.0.0-20181203162652-d668ce993890
	gonum.org/v1/plot v0.0.0-20190515093506-e2840ee46a6b
	google.golang.org/api v0.1.0
	gopkg.in/VividCortex/ewma.v1 v1.1.1 // indirect
	gopkg.in/cheggaaa/pb.v1 v1.0.27
	gopkg.in/cheggaaa/pb.v2 v2.0.6 // indirect
	gopkg.in/fatih/color.v1 v1.7.0 // indirect
	gopkg.in/go-playground/validator.v9 v9.29.0
	gopkg.in/mattn/go-colorable.v0 v0.1.0 // indirect
	gopkg.in/mattn/go-isatty.v0 v0.0.4 // indirect
	gopkg.in/mattn/go-runewidth.v0 v0.0.4 // indirect
)
